{
  "particles":
  {
	"number":
	{
	  "value": 80
	},
	"color":
	{
	  "value": "#f9f3f4"
	},
	"shape":
	{
	  "type": "circle",
	  "stroke":
	  {
		"width": 1,
		"color": "#ccc"
	  }
	},
	"opacity":
	{
	  "value": 0.5,
	  "random": true
	},
	"size":
	{
	  "value": 2
	},
	"line_linked":
	{
	  "enable": true,
	  "distance": 110
	},
	"move":
	{
	  "enable": true,
	  "speed": 1
	}
	},
	"retina_detect": true
}